{
  "extends": [
    "config:base",
    ":disableDependencyDashboard",
    ":disableRateLimiting"
  ],
  "labels": [
    "dependencies"
  ],
  "assigneesFromCodeOwners": true,
  "regexManagers": [
    {
      "fileMatch": ["\\.yaml(\\.gotmpl)?$"],
      "matchStrings": [
        "renovate: datasource=(?<datasource>.*?) depName=(?<depName>.*?)( registryUrl=(?<registryUrl>.*?))?( versioning=(?<versioning>.*?))?( depType=(?<depType>.*?))?\\s*(chart_version|tag):\\s*(?<currentValue>.*)"
      ],
      "versioningTemplate": "{{#if versioning}}{{{versioning}}}{{else}}semver{{/if}}"
    }
  ],
  "packageRules": [
    {
      "matchDepTypes": ["minikube", "pre", "ops", "ci", "gstg", "gprd"],
      "additionalBranchPrefix": "{{depType}}-",
      "commitMessagePrefix": "[{{depType}}]"
    }
  ]
}
